<?xml version="1.0" encoding="utf-8"?>
<!-- Generator: Adobe Illustrator 17.0.0, SVG Export Plug-In . SVG Version: 6.00 Build 0)  -->
<!DOCTYPE svg PUBLIC "-//W3C//DTD SVG 1.1//EN" "http://www.w3.org/Graphics/SVG/1.1/DTD/svg11.dtd">
<svg version="1.1" id="Layer_1" xmlns="http://www.w3.org/2000/svg" xmlns:xlink="http://www.w3.org/1999/xlink" x="0px" y="0px"
	 width="17.914px" height="17.914px" viewBox="-39.968 0.94 17.914 17.914" enable-background="new -39.968 0.94 17.914 17.914"
	 xml:space="preserve">
<path fill="#FFFFFF" d="M-26.862,6.723h-2.826V4.87c0-0.696,0.462-0.859,0.787-0.859c0.324,0,1.994,0,1.994,0v-3.06l-2.746-0.011
	c-3.049,0-3.742,2.282-3.742,3.742v2.04h-1.763v3.153h1.763c0,4.046,0,8.921,0,8.921h3.708c0,0,0-4.923,0-8.921h2.502L-26.862,6.723
	z"/>
<rect x="-39.968" y="0.94" fill="none" width="17.914" height="17.914"/>
</svg>
